{
  "type": "service_account",
  "project_id": "assignment-384217",
  "private_key_id": "f455448eb7a0c5005848c21a24cc7be7918090f1",
  "private_key": "-----BEGIN PRIVATE KEY-----\nMIIEvgIBADANBgkqhkiG9w0BAQEFAASCBKgwggSkAgEAAoIBAQCxOZcN59LfkTQh\n41IyQE5qcobxuwmIa1NEY2/P1uTw83rp8X48sLjaXRo1uYLqL3OhoRO/pc++Trp+\norBNh0A0TdN5DwqBeUrJ/Nzc0Zu5pyBp0CgfCNVDPgv9Z1AtZBJdPKcAt89SztOV\nWrQZHRHoGySKY92nafhR/Fxml0QhGZvpfOqzYzmcDwiLjfDRh7LjqsxB7JCVM+yr\nD+o98lhz3qqvix1WD0GAaFEY1lOC84ueC4pAVst0265HOAp6OAhe7f6F59QZ0Ri7\ny2khoGlfjj1cAamBIolbPI3RBwau1B44UZDD58/fr/i0JKIbVxTTkCOhf0HM9qTa\n7+lffa5LAgMBAAECggEAIaMzp4EDxklSIsh5tm38NDoOoN0GPy1XvZg+Ba3dAFrG\nTpb2heBpBZE8Q0w1q+tbwCbJj8uR9aYNwbFxUxXDuum2pLiVHuP9rP7gkMz8CK3O\n+iZ3JwTPLZceQXeVgTgIQEgdzoYUxLva7vMrUcTxvCNCuT2hOYBkkHMcuqAlXz6i\nKqSfHbn/BRWoFTCMWuaYqlYbIw4HWBFtySxQImlscU2DwvQ+9A6unwHGpM4Pnft4\nrclq2x4DaXg8mNgcmdY81DLVJ5zdUCqr9Bgcd5jw5pl8mwQXND0zFfu57QDJ8E6g\nsN0Idw9zON/uVRbubHOAChiZvpaDlAYmJxzSRKwdeQKBgQD6mNE0jMxMavel6wdd\nFd0OsZbBIdf/US+0B1HI3gxxdTGE3k/61UXpqrEOrEuorxPUvZR2kxxLW5rG6Lxe\nHb2SD09R8dKQlTkP3ZB6tkslBht3wFyorUMdUpcY9Jim15M589pMUN5HinxSe0Ci\n2h+/OqvFgs5zrj2CoT1nrmuBlwKBgQC1C8razB2cL34j0ZjXXyiU/PG/KN1iEqDM\n2PYvZUIQgt2H72bZejqVUKJ1uBPzX22Pyg0TDFqdlJlrOersBIAWZbBi+UGN6mKQ\nb6u4m4DjIwvYTiUXYILYM2VPJIfAUea1UDkWTl1Z0HmzafLtjDZ7AAxw5+u5OETk\nSyEjoQKnbQKBgQDyVXV56+5kt8xklrO4QLxUyUeP3LqUHF6VKb7dEF3YGgyZAKM3\nXacOIBK4rcU8ipIS2IIJaJmkBiHW2JnQKdJ4vHVoOQH271cPEKP3BvIEC7PkShFQ\nzLxqTsPvThmQvkeRc09XHZzWcgVnfekzktvAgWw6xBQBqi2xdVt8OB+eYQKBgFvA\n9DfbBo6nSyhgCzPrmCeZ4fLdhQU1J6Vpt6rhiI/RovBHljpVxebyjMNYXVQUYvRi\nlCm5Mxt1uiMroTGoPjoboz8lz+FajkVhMwhGVxXGJzSitg2Y7fcgZRGtE9eWKnRt\nieESKiFglK0m3uUhEGNZ7PQztbWTHOcOZGcoLK4pAoGBAL84DrlxoV4CkL6hu/aR\n6oVCYX90ncEj9Ik3AFe2tMdCt0hDrNjfFWjPk2xqITxuSbSxDo0uSnknLwcj42mk\nDU1Fc6+ob07yraRZT1riH/NJu7kc4MUWaeCSjJlBnr0pp1k0MfZmODVohknARJBD\nB7YAZIYOFtBGSiwGMvUJ3M/J\n-----END PRIVATE KEY-----\n",
  "client_email": "yaroslav-makhynia@assignment-384217.iam.gserviceaccount.com",
  "client_id": "100132790009003337633",
  "auth_uri": "https://accounts.google.com/o/oauth2/auth",
  "token_uri": "https://oauth2.googleapis.com/token",
  "auth_provider_x509_cert_url": "https://www.googleapis.com/oauth2/v1/certs",
  "client_x509_cert_url": "https://www.googleapis.com/robot/v1/metadata/x509/yaroslav-makhynia%40assignment-384217.iam.gserviceaccount.com"
}
